{
  "project_info": {
    "project_number": "1094075465822",
    "firebase_url": "https://lafteur-a0100.firebaseio.com",
    "project_id": "lafteur-a0100",
    "storage_bucket": "lafteur-a0100.appspot.com"
  },
  "client": [
    {
      "client_info": {
        "mobilesdk_app_id": "1:1094075465822:android:8552cd8063e4c95d",
        "android_client_info": {
          "package_name": "com.lafteur.app"
        }
      },
      "oauth_client": [
        {
          "client_id": "1094075465822-ck9hs3302cr3i2ah9oe64q87h83m2qb4.apps.googleusercontent.com",
          "client_type": 1,
          "android_info": {
            "package_name": "com.lafteur.app",
            "certificate_hash": "cc3b49a53c93c933d48b4e13f13be744b809d5f7"
          }
        },
        {
          "client_id": "1094075465822-6eeciimbbsuu3slo44rv1e4lvebmc5s4.apps.googleusercontent.com",
          "client_type": 3
        }
      ],
      "api_key": [
        {
          "current_key": "AIzaSyARr_Xu-YCLFckv06-6n4NRi4sRpfvtsUo"
        }
      ],
      "services": {
        "appinvite_service": {
          "other_platform_oauth_client": [
            {
              "client_id": "1094075465822-6eeciimbbsuu3slo44rv1e4lvebmc5s4.apps.googleusercontent.com",
              "client_type": 3
            }
          ]
        }
      }
    }
  ],
  "configuration_version": "1"
}